…
```r
full_picture <- na.omit(full_picture)
state_max <- full_picture %>%
  group_by(STABBR) %>%
  summarize(max_pov = max(poverty_rate))
state_max
```

```
## # A tibble: 57 × 2
##    STABBR max_pov
##    <fctr>   <dbl>
## 1      AK   11.49
## 2      AL   24.12
## 3      AR   22.59
## 4      AS    5.87
## 5      AZ   41.66
## 6      CA   27.18
## 7      CO   13.89
## 8      CT   18.27
## 9      DC   23.81
## 10     DE   10.85
## # ... with 47 more rows
```
…
